This is BibTeX, Version 0.99dThe top-level auxiliary file: master.aux
A level-1 auxiliary file: content/scenarios.tex.aux
I found no \citation commands---while reading file master.aux
I found no \bibdata command---while reading file master.aux
I found no \bibstyle command---while reading file master.aux
(There were 3 error messages)
